Retail Project
…
2. Produce Forecast

Forecast for the last 24 months of the original data is produced, as well as its 80% prediction interval. The plot comparing th actual values and the forecasted values is shown below. It could be seen that the model has captured the the information well, as the forecasted value is quite similar to the actual values.

test_fc_ets <- best_ets %>% forecast(h="24 months")  
interval <- test_fc_ets %>% mutate(interval=hilo(Turnover,0.80)) %>% pull(interval)
test_fc_ets <- test_fc_ets %>% mutate(Interval=interval)
test_fc_ets

## # A fable: 24 x 7 [1M]
## # Key:     State, Industry, .model [1]
##    State      Industry .model    Month    Turnover .mean                Interval
##    <chr>      <chr>    <chr>     <mth>      <dist> <dbl>                  <hilo>
##  1 New South~ Other s~ best   2017 Jan N(245, 126)  245. [244.5254, 244.7508]0.8
##  2 New South~ Other s~ best   2017 Feb N(229, 178)  229. [228.3803, 228.6478]0.8
##  3 New South~ Other s~ best   2017 Mar N(240, 272)  240. [240.1632, 240.4941]0.8
##  4 New South~ Other s~ best   2017 Apr N(237, 337)  237. [236.4342, 236.8025]0.8
##  5 New South~ Other s~ best   2017 May N(237, 414)  237. [237.2509, 237.6592]0.8
##  6 New South~ Other s~ best   2017 Jun N(230, 461)  230. [230.1834, 230.6139]0.8
##  7 New South~ Other s~ best   2017 Jul N(240, 580)  240. [240.2435, 240.7264]0.8
##  8 New South~ Other s~ best   2017 Aug N(242, 669)  242. [242.1898, 242.7084]0.8
##  9 New South~ Other s~ best   2017 Sep N(238, 724)  238. [238.1250, 238.6645]0.8
## 10 New South~ Other s~ best   2017 Oct N(250, 884)  250. [250.0078, 250.6039]0.8
## # ... with 14 more rows
…
5. Forecast

Forecast for the last 24 months of the original data is produced, as well as its 80% prediction interval. The plot comparing th actual values and the forecasted values is shown below. It could be seen that the model has captured the the information well, as the forecasted value is quite similar to the actual values.

test_fc_arima <- best_arima%>% forecast(h="24 months")

interval_arima <- test_fc_arima %>% mutate(interval=hilo(Turnover,0.80)) %>% pull(interval)
test_fc_arima <- test_fc_arima %>% mutate(Interval=interval_arima)
test_fc_arima

## # A fable: 24 x 7 [1M]
## # Key:     State, Industry, .model [1]
##    State           Industry             .model    Month           Turnover .mean
##    <chr>           <chr>                <chr>     <mth>             <dist> <dbl>
##  1 New South Wales Other specialised f~ "ARIM~ 2017 Jan t(N(2.2, 3.1e-05))  238.
##  2 New South Wales Other specialised f~ "ARIM~ 2017 Feb t(N(2.2, 4.9e-05))  224.
##  3 New South Wales Other specialised f~ "ARIM~ 2017 Mar   t(N(2.2, 7e-05))  237.
##  4 New South Wales Other specialised f~ "ARIM~ 2017 Apr t(N(2.2, 9.2e-05))  234.
##  5 New South Wales Other specialised f~ "ARIM~ 2017 May t(N(2.2, 0.00011))  235.
##  6 New South Wales Other specialised f~ "ARIM~ 2017 Jun t(N(2.2, 0.00014))  227.
##  7 New South Wales Other specialised f~ "ARIM~ 2017 Jul t(N(2.2, 0.00016))  234.
##  8 New South Wales Other specialised f~ "ARIM~ 2017 Aug t(N(2.2, 0.00018))  240.
##  9 New South Wales Other specialised f~ "ARIM~ 2017 Sep   t(N(2.2, 2e-04))  238.
## 10 New South Wales Other specialised f~ "ARIM~ 2017 Oct t(N(2.2, 0.00022))  254.
## # ... with 14 more rows, and 1 more variable: Interval <hilo>
…
2. Produce Forecast

Forecast for the next 2 years is produced. The plot comparing th actual values and the forecasted values is shown below, as well as its 80% prediction interval. It could be seen that the model has captured the the information well, as the forecasted value is quite similar to the actual values.

test_fc_ets_n <- best_ets_n %>% forecast(h="2 years")  
interval_n <- test_fc_ets_n %>% mutate(interval=hilo(Turnover,0.80)) %>% pull(interval)
test_fc_ets_n <- test_fc_ets_n %>% mutate(Interval=interval)
test_fc_ets_n

## # A fable: 24 x 7 [1M]
## # Key:     State, Industry, .model [1]
##    State     Industry .model    Month     Turnover .mean                Interval
##    <chr>     <chr>    <chr>     <mth>       <dist> <dbl>                  <hilo>
##  1 New Sout~ Other s~ "ETS(~ 2019 Jan  N(268, 152)  268. [244.5254, 244.7508]0.8
##  2 New Sout~ Other s~ "ETS(~ 2019 Feb  N(255, 220)  255. [228.3803, 228.6478]0.8
##  3 New Sout~ Other s~ "ETS(~ 2019 Mar  N(271, 341)  271. [240.1632, 240.4941]0.8
##  4 New Sout~ Other s~ "ETS(~ 2019 Apr  N(265, 418)  265. [236.4342, 236.8025]0.8
##  5 New Sout~ Other s~ "ETS(~ 2019 May  N(266, 512)  266. [237.2509, 237.6592]0.8
##  6 New Sout~ Other s~ "ETS(~ 2019 Jun  N(257, 561)  257. [230.1834, 230.6139]0.8
##  7 New Sout~ Other s~ "ETS(~ 2019 Jul  N(267, 698)  267. [240.2435, 240.7264]0.8
##  8 New Sout~ Other s~ "ETS(~ 2019 Aug  N(274, 833)  274. [242.1898, 242.7084]0.8
##  9 New Sout~ Other s~ "ETS(~ 2019 Sep  N(270, 904)  270. [238.1250, 238.6645]0.8
## 10 New Sout~ Other s~ "ETS(~ 2019 Oct N(282, 1088)  282. [250.0078, 250.6039]0.8
## # ... with 14 more rows
…
4. Forecast

Forecast for the next 2 years is produced. The plot comparing th actual values and the forecasted values is shown below, as well as its 80% prediction interval. It could be seen that the model has captured the the information well, as the forecasted value is quite similar to the actual values.

test_fc_arima_n <- best_arima_n%>% forecast(h="2 years")

interval_arima_n <- test_fc_arima_n %>% mutate(interval=hilo(Turnover,0.8)) %>% pull(interval)
test_fc_arima_n <- test_fc_arima_n %>% mutate(Interval=interval_arima_n)
test_fc_arima_n

## # A fable: 24 x 7 [1M]
## # Key:     State, Industry, .model [1]
##    State           Industry             .model    Month           Turnover .mean
##    <chr>           <chr>                <chr>     <mth>             <dist> <dbl>
##  1 New South Wales Other specialised f~ "ARIM~ 2019 Jan t(N(2.3, 3.3e-05))  269.
##  2 New South Wales Other specialised f~ "ARIM~ 2019 Feb t(N(2.2, 5.1e-05))  250.
##  3 New South Wales Other specialised f~ "ARIM~ 2019 Mar t(N(2.3, 7.3e-05))  270.
##  4 New South Wales Other specialised f~ "ARIM~ 2019 Apr t(N(2.2, 9.5e-05))  264.
##  5 New South Wales Other specialised f~ "ARIM~ 2019 May t(N(2.3, 0.00012))  268.
##  6 New South Wales Other specialised f~ "ARIM~ 2019 Jun t(N(2.2, 0.00014))  259.
##  7 New South Wales Other specialised f~ "ARIM~ 2019 Jul t(N(2.3, 0.00016))  269.
##  8 New South Wales Other specialised f~ "ARIM~ 2019 Aug t(N(2.3, 0.00018))  276.
##  9 New South Wales Other specialised f~ "ARIM~ 2019 Sep t(N(2.3, 0.00021))  272.
## 10 New South Wales Other specialised f~ "ARIM~ 2019 Oct t(N(2.3, 0.00023))  288.
## # ... with 14 more rows, and 1 more variable: Interval <hilo>
…
